{
  "page": 1,
  "total_results": 1465,
  "total_pages": 74,
  "results": [
    {
      "popularity": 20.224,
      "id": 396371,
      "video": false,
      "vote_count": 2179,
      "vote_average": 7.1,
      "title": "Molly's Game",
      "release_date": "2017-01-01",
      "original_language": "en",
      "original_title": "Molly's Game",
      "genre_ids": [
        80,
        18
      ],
      "backdrop_path": "/rHcBZ6ZKCe4FalWHyvBGsyMsh0k.jpg",
      "adult": false,
      "overview": "Molly Bloom, a young skier and former Olympic hopeful becomes a successful entrepreneur (and a target of an FBI investigation) when she establishes a high-stakes, international poker game.",
      "poster_path": "/in43bQ7k0ttr666IPP94IlbQbTR.jpg"
    },
    {
      "popularity": 44.241,
      "id": 205596,
      "video": false,
      "vote_count": 11994,
      "vote_average": 8.1,
      "title": "The Imitation Game",
      "release_date": "2014-11-14",
      "original_language": "en",
      "original_title": "The Imitation Game",
      "genre_ids": [
        36,
        18,
        53,
        10752
      ],
      "backdrop_path": "/sixfWYfNegaGGHKdXrNNUHaMiAC.jpg",
      "adult": false,
      "overview": "Based on the real life story of legendary cryptanalyst Alan Turing, the film portrays the nail-biting race against time by Turing and his brilliant team of code-breakers at Britain's top-secret Government Code and Cypher School at Bletchley Park, during the darkest days of World War II.",
      "poster_path": "/zSqJ1qFq8NXFfi7JeIYMlzyR0dx.jpg"
    },
    {
      "popularity": 17.331,
      "id": 80274,
      "video": false,
      "vote_count": 4019,
      "vote_average": 6.6,
      "title": "Ender's Game",
      "release_date": "2013-10-23",
      "original_language": "en",
      "original_title": "Ender's Game",
      "genre_ids": [
        878,
        28,
        12
      ],
      "backdrop_path": "/qGqlWb5izTPtFngBWdbJAEmninR.jpg",
      "adult": false,
      "overview": "Based on the classic novel by Orson Scott Card, Ender's Game is the story of the Earth's most gifted children training to defend their homeplanet in the space wars of the future.",
      "poster_path": "/tBgkQqrO2RMgGQR6zod3bSjcPWx.jpg"
    },
    {
      "popularity": 22.112,
      "vote_count": 3526,
      "video": false,
      "poster_path": "/85R8LMyn9f2Lev2YPBF8Nughrkv.jpg",
      "id": 445571,
      "adult": false,
      "backdrop_path": "/4hU1pC7MGQ7wU9ldkRJYNHK3vgb.jpg",
      "original_language": "en",
      "original_title": "Game Night",
      "genre_ids": [
        35,
        80,
        9648
      ],
      "title": "Game Night",
      "vote_average": 6.9,
      "overview": "Max and Annie's weekly game night gets kicked up a notch when Max's brother Brooks arranges a murder mystery party -- complete with fake thugs and federal agents. So when Brooks gets kidnapped, it's all supposed to be part of the game. As the competitors set out to solve the case, they start to learn that neither the game nor Brooks are what they seem to be. The friends soon find themselves in over their heads as each twist leads to another unexpected turn over the course of one chaotic night.",
      "release_date": "2018-02-22"
    },
    {
      "popularity": 13.87,
      "vote_count": 2178,
      "video": false,
      "poster_path": "/32dippiypDdaKv7XFEfUlQ7kPup.jpg",
      "id": 343674,
      "adult": false,
      "backdrop_path": "/t9HChjSJi8B1PXSVh5Ec3pcDsAM.jpg",
      "original_language": "en",
      "original_title": "Gerald's Game",
      "genre_ids": [
        18,
        27,
        53
      ],
      "title": "Gerald's Game",
      "vote_average": 6.4,
      "overview": "When her husband's sex game goes wrong, Jessie (who is handcuffed to a bed in a remote lake house) faces warped visions, dark secrets and a dire choice.",
      "release_date": "2017-09-19"
    },
    {
      "popularity": 17.763,
      "vote_count": 3503,
      "video": false,
      "poster_path": "/4UOa079915QjiTA2u5hT2yKVgUu.jpg",
      "id": 2649,
      "adult": false,
      "backdrop_path": "/k7GM13qRYSour3lk90Dq1EwdpoW.jpg",
      "original_language": "en",
      "original_title": "The Game",
      "genre_ids": [
        18,
        9648,
        53
      ],
      "title": "The Game",
      "vote_average": 7.6,
      "overview": "In honor of his birthday, San Francisco banker Nicholas Van Orton, a financial genius and a cold-hearted loner, receives an unusual present from his younger brother, Conrad: a gift certificate to play a unique kind of game. In nearly a nanosecond, Nicholas finds himself consumed by a dangerous set of ever-changing rules, unable to distinguish where the charade ends and reality begins.",
      "release_date": "1997-09-12"
    },
    {
      "popularity": 14.895,
      "vote_count": 1190,
      "video": false,
      "poster_path": "/6y8M1rxjKofQCRKKe6xeV91K2Fc.jpg",
      "id": 1535,
      "adult": false,
      "backdrop_path": "/p6L86CaTZ8Vls5UMdzQcl9hzXgt.jpg",
      "original_language": "en",
      "original_title": "Spy Game",
      "genre_ids": [
        28,
        80,
        53
      ],
      "title": "Spy Game",
      "vote_average": 6.9,
      "overview": "On the day of his retirement, a veteran CIA agent learns that his former protégé has been arrested in China, is sentenced to die the next morning in Beijing, and that the CIA is considering letting that happen to avoid an international scandal.",
      "release_date": "2001-11-18"
    },
    {
      "popularity": 12.697,
      "vote_count": 754,
      "video": false,
      "poster_path": "/eWFH7P8A9t8Bg6MkLPYmvS4t6di.jpg",
      "id": 230179,
      "adult": false,
      "backdrop_path": "/hJFOrHrDJIw0zU6lluOc5lWXKJp.jpg",
      "original_language": "en",
      "original_title": "Big Game",
      "genre_ids": [
        28,
        12,
        53
      ],
      "title": "Big Game",
      "vote_average": 5.4,
      "overview": "Air Force One is shot down by terrorists, leaving the President of the United States stranded in the wilderness. 13-year old Oskari is also in that wilderness, on a hunting mission to prove his maturity to his kinsfolk by tracking down a deer, but instead discovers the President in an escape pod. With the terrorists closing in to capture their prize, the unlikely duo team up to escape their hunters.",
      "release_date": "2014-09-05"
    },
    {
      "popularity": 9.903,
      "vote_count": 691,
      "video": false,
      "poster_path": "/8PdCk3T9EkcKniUviDogWFCXx28.jpg",
      "id": 13929,
      "adult": false,
      "backdrop_path": "/hC86FFCTFqhqg353fAqdQxljbW8.jpg",
      "original_language": "en",
      "original_title": "Geri's Game",
      "genre_ids": [
        16,
        10751
      ],
      "title": "Geri's Game",
      "vote_average": 7.8,
      "overview": "An aging codger named Geri plays a daylong game of chess in the park against himself. Somehow, he begins losing to his livelier opponent. But just when the game's nearly over, Geri manages to turn the tables.",
      "release_date": "1997-11-24"
    },
    {
      "popularity": 11.275,
      "id": 38363,
      "video": false,
      "vote_count": 454,
      "vote_average": 6.5,
      "title": "Fair Game",
      "release_date": "2010-05-20",
      "original_language": "en",
      "original_title": "Fair Game",
      "genre_ids": [
        18,
        53
      ],
      "backdrop_path": "/c4nDafBGV9xgMQdeVjqN4UNKDo5.jpg",
      "adult": false,
      "overview": "Wife and mother Valerie Plame (Naomi Watts) has a double life as a CIA operative, hiding her vocation from family and friends. Her husband, Joseph Wilson (Sean Penn), writes a controversial article in The New York Times, refuting stories about the sale of enriched uranium to Iraq, Then Valerie's secret work and identity is leaked to the press. With her cover blown and other people endangered, Valerie's career and personal life begin to unravel.",
      "poster_path": "/yHzv4lQYNV5FfOzf2sj6jm8MTQD.jpg"
    },
    {
      "popularity": 10.704,
      "vote_count": 295,
      "video": false,
      "poster_path": "/odGE80w7gN4dRdst4wgRLqztrtr.jpg",
      "id": 13253,
      "adult": false,
      "backdrop_path": "/fBWaHdUhTIOLYPOcPLeTJiRacpn.jpg",
      "original_language": "en",
      "original_title": "Futurama: Bender's Game",
      "genre_ids": [
        16,
        35,
        878
      ],
      "title": "Futurama: Bender's Game",
      "vote_average": 6.9,
      "overview": "When Leela is insulted by a group of space-rednecks (like regular rednecks, but in space) she enters the Planet Express ship in a demolition derby.  She emerges victorious, but when she brings the damaged ship home and the Professor sees the fuel gauge, he's enraged by the hit he's going to take at the Dark Matter pump.  Now the crew have to find a way to break Mom's stranglehold on starship fuel, even if they have to wade through a Lord of the Rings-inspired fantasy-land to do it!",
      "release_date": "2008-11-03"
    },
    {
      "popularity": 7.329,
      "vote_count": 131,
      "video": false,
      "poster_path": "/snOaMRXqU1ODE1SEPzBObd1xTAb.jpg",
      "id": 10955,
      "adult": false,
      "backdrop_path": null,
      "original_language": "en",
      "original_title": "Ripley's Game",
      "genre_ids": [
        80,
        53
      ],
      "title": "Ripley's Game",
      "vote_average": 6.5,
      "overview": "Tom Ripley - cool, urbane, wealthy, and murderous - lives in a villa in the Veneto with Luisa, his harpsichord-playing girlfriend. A former business associate from Berlin's underworld pays a call asking Ripley's help in killing a rival. Ripley - ever a student of human nature - initiates a game to turn a mild and innocent local picture framer into a hit man. The artisan, Jonathan Trevanny, who's dying of cancer, has a wife, young son, and little to leave them. If Ripley draws Jonathan into the game, can Ripley maintain control? Does it stop at one killing? What if Ripley develops a conscience?",
      "release_date": "2002-09-02"
    },
    {
      "popularity": 12.842,
      "vote_count": 109,
      "video": false,
      "poster_path": "/eufF3xEif5EZ1gTjdubw3KWh9xU.jpg",
      "id": 463088,
      "adult": false,
      "backdrop_path": "/1qvFSpY0cFfhfuJza4hDzcGxypz.jpg",
      "original_language": "en",
      "original_title": "The Game Changers",
      "genre_ids": [
        99
      ],
      "title": "The Game Changers",
      "vote_average": 7.4,
      "overview": "From the UFC Octagon in Las Vegas and the anthropology lab at Dartmouth, to a strongman gym in Berlin and the bushlands of Zimbabwe, the world is introduced to elite athletes, special ops soldiers, visionary scientists, cultural icons, and everyday heroes—each on a mission to create a seismic shift in the way we eat and live.",
      "release_date": "2019-09-16"
    },
    {
      "popularity": 8.861,
      "vote_count": 183,
      "video": false,
      "poster_path": "/dvMoi75ap47kvzjmdO568QhYQnt.jpg",
      "id": 91010,
      "adult": false,
      "backdrop_path": "/wYe0w2odluof3jb9tmn6ct3PS6o.jpg",
      "original_language": "en",
      "original_title": "Game Change",
      "genre_ids": [
        18,
        36,
        10770
      ],
      "title": "Game Change",
      "vote_average": 6.9,
      "overview": "During the Republican run of the 2008 Presidential election, candidate John McCain picks a relative unknown, Alaskan governor Sarah Palin, to be his running mate.  As the campaign kicks into high gear, her lack of experience, in both political and media savvy, becomes a drain upon McCain and his strategists.",
      "release_date": "2012-03-09"
    },
    {
      "popularity": 8.707,
      "vote_count": 111,
      "video": false,
      "poster_path": "/e5mV1iVcjg7nkpJrskQOnFCR4H9.jpg",
      "id": 21712,
      "adult": false,
      "backdrop_path": null,
      "original_language": "ja",
      "original_title": "Mind Game",
      "genre_ids": [
        12,
        16,
        9648
      ],
      "title": "Mind Game",
      "vote_average": 7.7,
      "overview": "The film follows Nishi, a loser who has a crush on his childhood girlfriend. After an encounter with the Japanese mafia, the film follows Nishi as he journeys to heaven and back, and ends up trapped in an even more unlikely place.",
      "release_date": "2004-08-07"
    },
    {
      "popularity": 8.451,
      "id": 9727,
      "video": false,
      "vote_count": 46,
      "vote_average": 5.4,
      "title": "End Game",
      "release_date": "2006-03-22",
      "original_language": "en",
      "original_title": "End Game",
      "genre_ids": [
        28,
        53
      ],
      "backdrop_path": "/1SSHqMgcz9cZdRgh8hKtD94WcBV.jpg",
      "adult": false,
      "overview": "Alex Thomas was the man in charge of protecting the president but, when the time came to fulfill his duties, everything just went wrong. His conscience haunted by a bullet, and his devotion to his country stronger than ever, Alex teams with a seasoned reporter to navigate a treacherous web of lies, unlocking a dangerous conspiracy, and enter a deadly world in which skilled assassins and highly-trained ex-special ops lurk in every shadow.",
      "poster_path": "/mfFx1d6bxnOBccWiMBF2brisASk.jpg"
    },
    {
      "popularity": 11.307,
      "vote_count": 585,
      "video": false,
      "poster_path": "/58BnnYeQOTzdMBghZIH1tSH0REx.jpg",
      "id": 456750,
      "adult": false,
      "backdrop_path": "/inhn4rTCAhvnu9yR5Kl1ZCRjBki.jpg",
      "original_language": "en",
      "original_title": "Game Over, Man!",
      "genre_ids": [
        28,
        35
      ],
      "title": "Game Over, Man!",
      "vote_average": 5.6,
      "overview": "Three friends are on the verge of getting their video game financed when their benefactor is taken hostage by terrorists.",
      "release_date": "2018-03-23"
    },
    {
      "popularity": 9.442,
      "id": 11859,
      "video": false,
      "vote_count": 121,
      "vote_average": 4.2,
      "title": "Fair Game",
      "release_date": "1995-11-03",
      "original_language": "en",
      "original_title": "Fair Game",
      "genre_ids": [
        28,
        53,
        10749
      ],
      "backdrop_path": "/pIZ4qUugsYCglgFQmsaOfuICqVi.jpg",
      "adult": false,
      "overview": "Max Kirkpatrick is a cop who protects Kate McQuean, a civil law attorney, from a renegade KGB team out to terminate her",
      "poster_path": "/qcxsWOzBaF7MZNNThtRQWQ9Wrdk.jpg"
    },
    {
      "popularity": 11.386,
      "id": 11386,
      "video": false,
      "vote_count": 383,
      "vote_average": 6.9,
      "title": "The Crying Game",
      "release_date": "1992-09-02",
      "original_language": "en",
      "original_title": "The Crying Game",
      "genre_ids": [
        10749,
        80,
        18,
        53
      ],
      "backdrop_path": "/9iqbVu3ciOtbSaQxolqmRGLqNcM.jpg",
      "adult": false,
      "overview": "Irish Republican Army member Fergus forms an unexpected bond with Jody, a kidnapped British soldier in his custody, despite the warnings of fellow IRA members Jude and Maguire. Jody makes Fergus promise he'll visit his girlfriend, Dil, in London, and when Fergus flees to the city, he seeks her out. Hounded by his former IRA colleagues, he finds himself increasingly drawn to the enigmatic, and surprising, Dil.",
      "poster_path": "/kdaROz8u9vEBuebDN2NNgcx99Kb.jpg"
    },
    {
      "popularity": 12.641,
      "vote_count": 118,
      "video": false,
      "poster_path": "/7YRO2Jamqb6ck5vJqrwWgMFWuPW.jpg",
      "id": 585759,
      "adult": false,
      "backdrop_path": "/kmMkArAXmX852x74FT0Cj9fidHs.jpg",
      "original_language": "en",
      "original_title": "The Coldest Game",
      "genre_ids": [
        53
      ],
      "title": "The Coldest Game",
      "vote_average": 6.2,
      "overview": "During 1962's Cuban missile crisis, a troubled math genius finds himself drafted to play in a U.S.-Soviet chess match -- and a deadly game of espionage.",
      "release_date": "2019-11-08"
    }
  ]
}
